{"status":"ok","total_hits":71,"page":1,"total_pages":15,"page_size":5,"articles":[{"summary":"Wuhan city,China Looking out over a glistening South China Sea makes for an impressive background for your daily Zoom calls. After an illustrious career, including a spell as the deputy Chief Medical Officer for England, Professor John Watson had been planning to retire from PHE and start to slowly wind things down. The COVID-19 pandemic has put that on hold for the time being and now here he is sitting in a hotel room in the city of Xiamen on the east coast of China, just north of Hong Kong. A few days into his two-week quarantine and Prof Watson is itching to meet up with the rest of the 10 strong World Health Organization (WHO) team that has been dispatched to China to investigate the origins of COVID-19.","country":"UK","author":"John Watson","link":"https://publichealthmatters.blog.gov.uk/2021/03/05/uncovering-the-origins-of-covid-19/","language":"en","media":"https://publichealthmatters.blog.gov.uk/wp-content/uploads/sites/33/2020/01/wuhan-iStock-1076617066-scaled-e1579800786643.jpg","title":"Uncovering the origins of COVID-19","media_content":null,"clean_url":"blog.gov.uk","rights":"blog.gov.uk","rank":"5068","topic":"beauty","published_date":"2021-03-05 09:18:32","_id":"0e8fce74375092b44e8a07d7c8183aa5","_score":4.4329147},{"summary":"We know that schools are a vital environment for children and young people's wellbeing and mental health, as well as their learning. Schools have remained open to children of key workers and vulnerable children throughout the pandemic, and this has played a major role in keeping essential services like hospitals running. Children and young people are very rarely seriously ill following COVID-19 infection – the move to home learning for most children was part of the drive to lower community transmission.","country":"UK","author":"Viv Bennett","link":"https://publichealthmatters.blog.gov.uk/2021/02/25/covid-19-what-we-know-about-covid-in-schools/","language":"en","media":"https://publichealthmatters.blog.gov.uk/wp-content/uploads/sites/33/2021/02/iStock-911839534.jpg","title":"COVID-19: Science lessons – What We Know About COVID-19 in Schools","media_content":null,"clean_url":"blog.gov.uk","rights":"blog.gov.uk","rank":"5102","topic":"beauty","published_date":"2021-02-25 16:52:12","_id":"0561caad3befee3407d8d9d3cb76e2ab","_score":4.4009967},{"summary":"https://publichealthmatters.blog.gov.uk/2020/10/20/covid-19-dashboard-a-design-and-feature-evolution/ We've recently launched a refreshed dashboard design with some exciting new features.The changes are in direct response to a survey of tens of thousands of our users. There was a lot of feedback, with one response running to more than 30,000 words!But the main message was that people's needs from the dashboard have changed as the pandemic has evolved. In the past you mostly wanted to know the totals, the numbers of cases and deaths since the pandemic began.","country":"UK","author":"Nick Jones","link":"https://publichealthmatters.blog.gov.uk/2020/10/20/covid-19-dashboard-a-design-and-feature-evolution/","language":"en","media":"https://publichealthmatters.blog.gov.uk/wp-content/uploads/sites/33/2020/10/hero.jpg","title":"COVID-19 dashboard: a design and feature evolution","media_content":null,"clean_url":"blog.gov.uk","rights":"blog.gov.uk","rank":"5361","topic":"beauty","published_date":"2020-10-20 11:09:39","_id":"0e3c65c407a9dc3442eafc069d95c5e9","_score":4.178667},{"summary":"https://publichealthmatters.blog.gov.uk/2021/02/11/women-and-girls-in-science-on-the-frontline-against-covid-19/ Madison Exter joined UK Biocentre at the Milton Keynes Lighthouse lab as a temporary lab technician, after studying Human Biology. When testing capacity was rapidly increasing to help halt the spread of COVID-19, she became a Laboratory Supervisor, supporting the team to process tens of thousands of swab samples every day as part of the NHS Test and Trace network. To mark International Day of Women and Girls in Science, Madison tells us her story.","country":"UK","author":"Madison Exter","link":"https://publichealthmatters.blog.gov.uk/2021/02/11/women-and-girls-in-science-on-the-frontline-against-covid-19/","language":"en","media":"https://publichealthmatters.blog.gov.uk/wp-content/uploads/sites/33/2021/02/iStock-542576580.jpg","title":"Women and Girls in Science: on the frontline against COVID-19","media_content":null,"clean_url":"blog.gov.uk","rights":"blog.gov.uk","rank":"5192","topic":"beauty","published_date":"2021-02-11 16:54:12","_id":"fa3e3443701765b80ce66b1acd621bc1","_score":3.8718243},{"summary":"A generic vaccine image. We are currently receiving lots of updates and seeing regular news stories on COVID-19 vaccines as well as articles on vaccines in general. There is a lot of interest in how they are made, approved and rolled out to the public. You may have seen mentions of the Joint Committee on Vaccination and Immunisation (JCVI) and the Medicines and Healthcare Regulatory Authority (MHRA) when reading about how we will approve and roll out a vaccine in the United Kingdom. What does the MHRA do? The MHRA is an executive department of the Department of Health and Social Care and is the body that regulates medicines, medical devices and blood components for transfusion in the UK.","country":"UK","author":"Blog Editor","link":"https://publichealthmatters.blog.gov.uk/2020/12/02/the-roles-of-the-mhra-and-jcvi-in-covid-19-vaccines/","language":"en","media":"https://publichealthmatters.blog.gov.uk/wp-content/uploads/sites/33/2016/04/vaccine-adult.jpg","title":"The roles of the MHRA and JCVI in COVID-19 vaccines","media_content":null,"clean_url":"blog.gov.uk","rights":"blog.gov.uk","rank":"5212","topic":"beauty","published_date":"2020-12-02 12:22:15","_id":"643ef06e6df59a629bd2a1d6a1f91f3e","_score":3.83916}],"user_input":{"q":"Covid","search_in":"title_en","lang":"en","country":"UK","from":"2020-03-01 00:00:00","to":null,"ranked_only":"True","from_rank":null,"to_rank":null,"sort_by":"relevancy","page":1,"size":5,"sources":null,"not_sources":null,"topic":null,"media":"True"}}